<?xml version="1.0" encoding="UTF-8"?>
<model ref="r:9a34ef6a-28e7-40dc-be6c-fe4439307630(Task_2_Language.behavior)">
  <persistence version="9" />
  <languages>
    <use id="af65afd8-f0dd-4942-87d9-63a55f2a9db1" name="jetbrains.mps.lang.behavior" version="1" />
    <devkit ref="2677cb18-f558-4e33-bc38-a5139cee06dc(jetbrains.mps.devkit.language-design)" />
  </languages>
  <imports />
  <registry />
</model>

