<?xml version="1.0" encoding="UTF-8"?>
<model ref="r:67cea76c-0afb-4e59-b9b0-4ff6f5a6d08d(Task_2_Language.typesystem)">
  <persistence version="9" />
  <languages>
    <use id="7a5dda62-9140-4668-ab76-d5ed1746f2b2" name="jetbrains.mps.lang.typesystem" version="0" />
    <devkit ref="2677cb18-f558-4e33-bc38-a5139cee06dc(jetbrains.mps.devkit.language-design)" />
  </languages>
  <imports />
  <registry />
</model>

